  0:1:10  Number_of_item(s)=2
   0:1:10:1
    0:1:10:1:1    TDataStd_String=bumper
    0:1:10:1:2    TDataStd_Integer=1
    0:1:10:1:3    TDataStd_Integer=1
    0:1:10:1:4    TDataStd_Integer=1
    0:1:10:1:5    TDataStd_Integer=1
    0:1:10:1:6    TDataStd_Integer=1
   0:1:10:2
    0:1:10:2:1    TDataStd_String=wall
    0:1:10:2:2    TDataStd_Integer=2
    0:1:10:2:3    TDataStd_Integer=1
    0:1:10:2:4    TDataStd_Integer=2
    0:1:10:2:5    TDataStd_Integer=2
    0:1:10:2:6    TDataStd_Integer=2
  0:1:11  Number_of_item(s)=2
   0:1:11:1
    0:1:11:1:2    TDataStd_String=Box
    0:1:11:1:3    TDataStd_RealArray= (0.2, 0.2, 0.0012)
    0:1:11:1:4    TDataStd_Real=0
    0:1:11:1:5    TDataStd_Real=0.1344
    0:1:11:1:7    TDataStd_Real=1
    0:1:11:1:8    TDataStd_RealArray= (0, 0, 0)
   0:1:11:2
    0:1:11:2:2    TDataStd_String=Box
    0:1:11:2:3    TDataStd_RealArray= (0.2, 0.2, 0.0032)
    0:1:11:2:4    TDataStd_Real=0
    0:1:11:2:5    TDataStd_Real=0.3584
    0:1:11:2:7    TDataStd_Real=1
    0:1:11:2:8    TDataStd_RealArray= (0, 0, 0)
  0:1:12  Number_of_item(s)=2
   0:1:12:1
    0:1:12:1:2    TDataStd_RealArray= (0, 0, 0)
    0:1:12:1:3    TDataStd_RealArray= (0, 0, 0)
    0:1:12:1:4    TDataStd_RealArray= (1, 0, 0, 0)
    0:1:12:1:5    TDataStd_RealArray= (0, 0, 0)
   0:1:12:2
    0:1:12:2:2    TDataStd_RealArray= (0, 0, 0.1)
    0:1:12:2:3    TDataStd_RealArray= (0, 0, 0)
    0:1:12:2:4    TDataStd_RealArray= (1, 0, 0, 0)
    0:1:12:2:5    TDataStd_RealArray= (0, 0, 0)
  0:1:13  Number_of_item(s)=2
   0:1:13:1
    0:1:13:1:2    TDataStd_RealArray= (0, 0, 0)
    0:1:13:1:3    TDataStd_RealArray= (0, 0, 0)
    0:1:13:1:4    TDataStd_RealArray= (0, 0, 0, 0)
    0:1:13:1:5    TDataStd_RealArray= (0, 0, 0)
    0:1:13:1:6    TDataStd_RealArray= (0, 0, 0)
   0:1:13:2
    0:1:13:2:2    TDataStd_RealArray= (0, 0, 0)
    0:1:13:2:3    TDataStd_RealArray= (0, 0, 0)
    0:1:13:2:4    TDataStd_RealArray= (0, 0, 0, 0)
    0:1:13:2:5    TDataStd_RealArray= (0, 0, 0)
    0:1:13:2:6    TDataStd_RealArray= (0, 0, 0)
  0:1:14  Number_of_item(s)=2
   0:1:14:1
    0:1:14:1:2    TDataStd_Integer=0
    0:1:14:1:3    TDataStd_Real=50000
    0:1:14:1:4    TDataStd_Real=0
    0:1:14:1:5    TDataStd_Integer=1
    0:1:14:1:6    TDataStd_Real=0
    0:1:14:1:7    TDataStd_Real=0
    0:1:14:1:8    TDataStd_Real=0
    0:1:14:1:9    TDataStd_Integer=0
    0:1:14:1:10    TDataStd_Integer=0
    0:1:14:1:11    TDataStd_Real=3000
    0:1:14:1:12    TDataStd_Real=0
   0:1:14:2
    0:1:14:2:2    TDataStd_Integer=0
    0:1:14:2:3    TDataStd_Real=2000
    0:1:14:2:4    TDataStd_Real=0
    0:1:14:2:5    TDataStd_Integer=1
    0:1:14:2:6    TDataStd_Real=0
    0:1:14:2:7    TDataStd_Real=0
    0:1:14:2:8    TDataStd_Real=0
    0:1:14:2:9    TDataStd_Integer=0
    0:1:14:2:10    TDataStd_Integer=0
    0:1:14:2:11    TDataStd_Real=3000
    0:1:14:2:12    TDataStd_Real=0
