"Y(X), created by Plot Digitizer, 2.6.6"
"Date: 04/09/18, 22.19.01"


73
X,Y
12.6400,102.267,
2.86753,925.239,
3.08079,833.034,
3.29404,750.018,
3.72006,629.649,
4.14508,566.947,
4.57060,492.922,
4.99712,399.573,
5.42264,347.401,
5.63640,302.017,
6.06192,262.583,
6.48644,244.862,
7.12373,212.908,
7.54875,191.706,
8.39680,178.798,
9.03358,161.006,
9.45860,144.973,
10.3067,135.211,
10.9439,117.566,
11.7920,109.650,
55.0177,18.0485,
14.5489,82.9472,
15.8215,72.1407,
16.4573,69.6753,
17.5176,62.7525,
18.5774,58.5318,
19.8490,54.5995,
20.4858,49.1665,
21.7568,47.4979,
22.8166,44.3033,
23.6642,42.7927,
24.7240,39.9145,
25.3598,38.5504,
26.6309,37.2422,
29.1720,37.2790,
29.5971,33.5667,
31.0799,32.4303,
27.4779,37.2544,
32.1397,30.2490,
33.1985,30.2615,
34.0466,28.2238,
34.6829,26.3212,
35.3182,26.3277,
35.7417,26.3320,
36.8010,25.4363,
39.9790,22.9279,
40.8265,22.1461,
46.3334,20.6924,
46.7584,18.6318,
52.8995,18.6764,
56.5010,16.8374,
57.5598,16.8443,
59.0437,15.1732,
59.8912,14.6558,
60.5270,14.1550,
61.3750,13.2018,
62.2236,11.8891,
63.0717,11.0886,
63.9197,10.3419,
65.4035,9.31589,
65.8281,8.68716,
66.2531,7.82208,
69.8536,7.56348,
70.9139,6.81199,
72.3987,5.72110,
73.6708,5.15308,
74.0958,4.63993,
74.5208,4.17788,
73.6748,3.89399,
77.2787,2.94667,
77.4945,2.22687,
80.6769,1.46462,
80.6864,0.752928,
